{
  "name": "now-gitlab-bug",
  "version": 2,
  "alias": "now-gitlab-bug-git-master.sobolevn.now.sh",
  "builds": [{
    "src": "index.html",
    "use": "@now/static"
  }],
  "build": {
    "env": {
      "API_URL_BROWSER": "https://jsonplaceholder.typicode.com"
    }
  }
}
